{
	printf("Enter a positive integer: ");
	int n = scanf();
	int i = 1;
	int sum = 0;
	
	if(!(n == 0){
		while(i <= n){
			sum += i;
			i++;
		}		
	}
	if(n < 0) printf("You enterged a negative number! ");
	if(n == 0) printf("0 doesn't work in this example!");
	
}